INSERT INTO student (Student_id, Student_Name, Batch_1, Course_Angular, Batch_2, Course_DataScience)
VALUES ('keshav', '1', 'Angular', '2', 'DataScience'),
('Shiwani', '', '', '2', 'DataScience'),
('Kanhaiya', '1', 'Angular', '', '');
